test/test4.vcd
$date
   Date text. For example: November 11, 2009.
$end
$version
   VCD generator tool version info text.
$end
$comment
   Any comment text.
$end
$timescale 1ps $end
$scope module logic $end
$var wire 1 !1 t1 $end
$var wire 1 !2 t2 $end
$var wire 1 !3 t3 $end
$upscope $end
$enddefinitions $end
$dumpvars
#0
0!1
0!2
1!3
#5
1!1
#10
1!2
#20
0!2
#25
0!1
#30
1!2
#40
0!2
#45
1!1
#50
1!2
#60
0!2
#65
0!1
#70
1!2
#80
0!2
#85
0!3
#90
1!2
#100
0!2
